(kicad_sch (version 20211123) (generator eeschema)

  (uuid 1e57ef1f-a1ae-4449-9ca4-0d5a256972b9)

  (paper "A4")

  (title_block
    (title "DAC-DR-ClockAdapter")
    (date "2023-09-24")
    (rev "v2.0-2")
    (company "T5! DIY Audio")
  )

  (lib_symbols
    (symbol "Device:C" (pin_numbers hide) (pin_names (offset 0.254)) (in_bom yes) (on_board yes)
      (property "Reference" "C" (id 0) (at 0.635 2.54 0)
        (effects (font (size 1.27 1.27)) (justify left))
      )
      (property "Value" "C" (id 1) (at 0.635 -2.54 0)
        (effects (font (size 1.27 1.27)) (justify left))
      )
      (property "Footprint" "" (id 2) (at 0.9652 -3.81 0)
        (effects (font (size 1.27 1.27)) hide)
      )
      (property "Datasheet" "~" (id 3) (at 0 0 0)
        (effects (font (size 1.27 1.27)) hide)
      )
      (property "ki_keywords" "cap capacitor" (id 4) (at 0 0 0)
        (effects (font (size 1.27 1.27)) hide)
      )
      (property "ki_description" "Unpolarized capacitor" (id 5) (at 0 0 0)
        (effects (font (size 1.27 1.27)) hide)
      )
      (property "ki_fp_filters" "C_*" (id 6) (at 0 0 0)
        (effects (font (size 1.27 1.27)) hide)
      )
      (symbol "C_0_1"
        (polyline
          (pts
            (xy -2.032 -0.762)
            (xy 2.032 -0.762)
          )
          (stroke (width 0.508) (type default) (color 0 0 0 0))
          (fill (type none))
        )
        (polyline
          (pts
            (xy -2.032 0.762)
            (xy 2.032 0.762)
          )
          (stroke (width 0.508) (type default) (color 0 0 0 0))
          (fill (type none))
        )
      )
      (symbol "C_1_1"
        (pin passive line (at 0 3.81 270) (length 2.794)
          (name "~" (effects (font (size 1.27 1.27))))
          (number "1" (effects (font (size 1.27 1.27))))
        )
        (pin passive line (at 0 -3.81 90) (length 2.794)
          (name "~" (effects (font (size 1.27 1.27))))
          (number "2" (effects (font (size 1.27 1.27))))
        )
      )
    )
    (symbol "t-5:DIP-14-4-THT" (pin_names (offset 1.016)) (in_bom yes) (on_board yes)
      (property "Reference" "U" (id 0) (at 0 2.54 0)
        (effects (font (size 1.27 1.27)))
      )
      (property "Value" "DIP-14-4-THT" (id 1) (at 0 0 0)
        (effects (font (size 1.27 1.27)))
      )
      (property "Footprint" "" (id 2) (at 0 0 0)
        (effects (font (size 1.27 1.27)) hide)
      )
      (property "Datasheet" "" (id 3) (at 0 0 0)
        (effects (font (size 1.27 1.27)) hide)
      )
      (symbol "DIP-14-4-THT_0_1"
        (rectangle (start -5.08 -2.54) (end 5.08 -7.62)
          (stroke (width 0) (type default) (color 0 0 0 0))
          (fill (type background))
        )
      )
      (symbol "DIP-14-4-THT_1_1"
        (pin input line (at -7.62 -3.81 0) (length 2.54)
          (name "1" (effects (font (size 1.27 1.27))))
          (number "1" (effects (font (size 1.27 1.27))))
        )
        (pin input line (at -7.62 -6.35 0) (length 2.54)
          (name "2" (effects (font (size 1.27 1.27))))
          (number "2" (effects (font (size 1.27 1.27))))
        )
        (pin input line (at 7.62 -6.35 180) (length 2.54)
          (name "3" (effects (font (size 1.27 1.27))))
          (number "3" (effects (font (size 1.27 1.27))))
        )
        (pin input line (at 7.62 -3.81 180) (length 2.54)
          (name "4" (effects (font (size 1.27 1.27))))
          (number "4" (effects (font (size 1.27 1.27))))
        )
      )
    )
    (symbol "t-5:XO_4Pin" (pin_names (offset 1.016)) (in_bom yes) (on_board yes)
      (property "Reference" "XO" (id 0) (at 0 0 0)
        (effects (font (size 1.27 1.27)))
      )
      (property "Value" "XO_4Pin" (id 1) (at 0 -2.54 0)
        (effects (font (size 1.27 1.27)))
      )
      (property "Footprint" "T5_w11:XO_4Pin" (id 2) (at 0 0 0)
        (effects (font (size 1.27 1.27)) hide)
      )
      (property "Datasheet" "" (id 3) (at 0 0 0)
        (effects (font (size 1.27 1.27)) hide)
      )
      (symbol "XO_4Pin_0_1"
        (rectangle (start -6.35 -5.08) (end 6.35 -15.24)
          (stroke (width 0) (type default) (color 0 0 0 0))
          (fill (type background))
        )
      )
      (symbol "XO_4Pin_1_1"
        (pin input line (at -8.89 -7.62 0) (length 2.54)
          (name "EN" (effects (font (size 1.27 1.27))))
          (number "1" (effects (font (size 1.27 1.27))))
        )
        (pin power_in line (at -8.89 -12.7 0) (length 2.54)
          (name "GND" (effects (font (size 1.27 1.27))))
          (number "2" (effects (font (size 1.27 1.27))))
        )
        (pin output line (at 8.89 -12.7 180) (length 2.54)
          (name "Out+" (effects (font (size 1.27 1.27))))
          (number "3" (effects (font (size 1.27 1.27))))
        )
        (pin power_in line (at 8.89 -7.62 180) (length 2.54)
          (name "VCC" (effects (font (size 1.27 1.27))))
          (number "4" (effects (font (size 1.27 1.27))))
        )
      )
    )
  )

  (junction (at 100.33 72.39) (diameter 0) (color 0 0 0 0)
    (uuid 38b21a18-75f4-4d41-97ae-fa42f4834e7c)
  )
  (junction (at 125.73 77.47) (diameter 0) (color 0 0 0 0)
    (uuid 476a20f7-99d6-407c-a9b7-2cd1330e11f8)
  )

  (wire (pts (xy 125.73 59.69) (xy 125.73 77.47))
    (stroke (width 0) (type default) (color 0 0 0 0))
    (uuid 05af0f34-0a3b-4ba2-828e-696946db3a33)
  )
  (wire (pts (xy 119.38 59.69) (xy 125.73 59.69))
    (stroke (width 0) (type default) (color 0 0 0 0))
    (uuid 26c493f5-e737-4706-8b60-720b5dc24353)
  )
  (wire (pts (xy 123.19 72.39) (xy 123.19 62.23))
    (stroke (width 0) (type default) (color 0 0 0 0))
    (uuid 3346f7c5-f643-48fc-8088-f249b9fa9e35)
  )
  (wire (pts (xy 123.19 62.23) (xy 119.38 62.23))
    (stroke (width 0) (type default) (color 0 0 0 0))
    (uuid 33d32cff-7c15-4893-a006-79cda1a7b6e7)
  )
  (wire (pts (xy 104.14 62.23) (xy 100.33 62.23))
    (stroke (width 0) (type default) (color 0 0 0 0))
    (uuid 37dc5bd7-7d72-4b16-9735-0f30400ba4b7)
  )
  (wire (pts (xy 125.73 88.9) (xy 100.33 88.9))
    (stroke (width 0) (type default) (color 0 0 0 0))
    (uuid 4fdcdd60-10dc-4a28-97ac-4f81ae0f9a07)
  )
  (wire (pts (xy 100.33 62.23) (xy 100.33 72.39))
    (stroke (width 0) (type default) (color 0 0 0 0))
    (uuid 6a56afdd-131f-4724-9300-fed99aa57912)
  )
  (wire (pts (xy 125.73 87.63) (xy 125.73 88.9))
    (stroke (width 0) (type default) (color 0 0 0 0))
    (uuid 7c3a9bd5-76e1-4387-ab33-94ef6d10c007)
  )
  (wire (pts (xy 125.73 80.01) (xy 125.73 77.47))
    (stroke (width 0) (type default) (color 0 0 0 0))
    (uuid 8f349f29-1cdc-4955-94c6-5b09f526da45)
  )
  (wire (pts (xy 102.87 77.47) (xy 97.79 77.47))
    (stroke (width 0) (type default) (color 0 0 0 0))
    (uuid 97e6fdc5-c0e8-40c2-8de0-c1489eaa42ce)
  )
  (wire (pts (xy 120.65 72.39) (xy 123.19 72.39))
    (stroke (width 0) (type default) (color 0 0 0 0))
    (uuid a8e889a0-9de5-4139-8ec5-01312c14c6ff)
  )
  (wire (pts (xy 100.33 72.39) (xy 102.87 72.39))
    (stroke (width 0) (type default) (color 0 0 0 0))
    (uuid bb45bee4-e79a-4bd8-85e4-ea77f6502126)
  )
  (wire (pts (xy 97.79 59.69) (xy 104.14 59.69))
    (stroke (width 0) (type default) (color 0 0 0 0))
    (uuid c16768ef-7dd9-4891-9935-bf25878b3caa)
  )
  (wire (pts (xy 100.33 88.9) (xy 100.33 72.39))
    (stroke (width 0) (type default) (color 0 0 0 0))
    (uuid ca7dfa1f-3274-4dde-8d38-7099f2acb41c)
  )
  (wire (pts (xy 125.73 77.47) (xy 120.65 77.47))
    (stroke (width 0) (type default) (color 0 0 0 0))
    (uuid e7bfe75f-ac64-4f1a-8034-303fbe833307)
  )
  (wire (pts (xy 97.79 77.47) (xy 97.79 59.69))
    (stroke (width 0) (type default) (color 0 0 0 0))
    (uuid f95257da-6086-4615-8bc7-8f6644cf3fbb)
  )

  (symbol (lib_id "t-5:DIP-14-4-THT") (at 111.76 55.88 0) (unit 1)
    (in_bom yes) (on_board yes)
    (uuid 00000000-0000-0000-0000-000061be99b2)
    (property "Reference" "U2" (id 0) (at 111.76 53.975 0))
    (property "Value" "DIP-14-4-THT" (id 1) (at 111.76 56.2864 0))
    (property "Footprint" "T5_w11:DIP-14-4-THT" (id 2) (at 111.76 55.88 0)
      (effects (font (size 1.27 1.27)) hide)
    )
    (property "Datasheet" "" (id 3) (at 111.76 55.88 0)
      (effects (font (size 1.27 1.27)) hide)
    )
    (pin "1" (uuid ed8d3cab-1540-4706-a646-604c0285ab66))
    (pin "2" (uuid a281d358-9caf-4fae-99df-7249b683be3c))
    (pin "3" (uuid 632d3de4-04c3-4b65-b323-748a3d43c833))
    (pin "4" (uuid d892ae0e-4c93-4ce5-93e6-dcd68b9f0b0d))
  )

  (symbol (lib_id "t-5:XO_4Pin") (at 111.76 85.09 0) (mirror x) (unit 1)
    (in_bom yes) (on_board yes)
    (uuid 00000000-0000-0000-0000-000061be99b8)
    (property "Reference" "XO2" (id 0) (at 111.76 65.659 0))
    (property "Value" "XO_4Pin" (id 1) (at 111.76 67.9704 0))
    (property "Footprint" "T5_w11:XO NDK NZ2520SDA" (id 2) (at 111.76 85.09 0)
      (effects (font (size 1.27 1.27)) hide)
    )
    (property "Datasheet" "" (id 3) (at 111.76 85.09 0)
      (effects (font (size 1.27 1.27)) hide)
    )
    (pin "1" (uuid 639558d1-450a-451a-aa01-5d332e34af59))
    (pin "2" (uuid d83428cc-3994-4733-a302-781def665bde))
    (pin "3" (uuid 23aea924-126f-4719-99c7-4a820e5cb483))
    (pin "4" (uuid ecfbe28f-a8b7-4299-98cd-ae53b95a03e9))
  )

  (symbol (lib_id "Device:C") (at 125.73 83.82 0) (unit 1)
    (in_bom yes) (on_board yes)
    (uuid 00000000-0000-0000-0000-000061beb67f)
    (property "Reference" "C2" (id 0) (at 128.651 82.6516 0)
      (effects (font (size 1.27 1.27)) (justify left))
    )
    (property "Value" "10n" (id 1) (at 128.651 84.963 0)
      (effects (font (size 1.27 1.27)) (justify left))
    )
    (property "Footprint" "Capacitor_SMD:C_0805_2012Metric" (id 2) (at 126.6952 87.63 0)
      (effects (font (size 1.27 1.27)) hide)
    )
    (property "Datasheet" "~" (id 3) (at 125.73 83.82 0)
      (effects (font (size 1.27 1.27)) hide)
    )
    (pin "1" (uuid 1c2e0808-e203-41c1-a208-30a00244b4f8))
    (pin "2" (uuid 483fa5af-3a31-4533-966f-7981cec8e1ca))
  )

  (sheet_instances
    (path "/" (page "1"))
  )

  (symbol_instances
    (path "/00000000-0000-0000-0000-000061beb67f"
      (reference "C2") (unit 1) (value "10n") (footprint "Capacitor_SMD:C_0805_2012Metric")
    )
    (path "/00000000-0000-0000-0000-000061be99b2"
      (reference "U2") (unit 1) (value "DIP-14-4-THT") (footprint "T5_w11:DIP-14-4-THT")
    )
    (path "/00000000-0000-0000-0000-000061be99b8"
      (reference "XO2") (unit 1) (value "XO_4Pin") (footprint "T5_w11:XO NDK NZ2520SDA")
    )
  )
)
