EESchema Schematic File Version 4
EELAYER 30 0
EELAYER END
$Descr A4 11693 8268
encoding utf-8
Sheet 1 1
Title "DAC-DR-ClockAdapter"
Date "2021-12-29"
Rev "1.1"
Comp "T5! DIY Audio"
Comment1 ""
Comment2 ""
Comment3 ""
Comment4 ""
$EndDescr
$Comp
L t-5:DIP-14-4-THT U1
U 1 1 61BE50A8
P 2850 2200
F 0 "U1" H 2850 2275 50  0000 C CNN
F 1 "DIP-14-4-THT" H 2850 2184 50  0000 C CNN
F 2 "T5_w11:DIP-14-4-THT" H 2850 2200 50  0001 C CNN
F 3 "" H 2850 2200 50  0001 C CNN
	1    2850 2200
	1    0    0    -1  
$EndComp
$Comp
L t-5:XO_4Pin XO1
U 1 1 61BE7255
P 2850 3350
F 0 "XO1" H 2850 2585 50  0000 C CNN
F 1 "XO_4Pin" H 2850 2676 50  0000 C CNN
F 2 "T5_w11:XO KVG XO-91A000-LF" H 2850 3350 50  0001 C CNN
F 3 "" H 2850 3350 50  0001 C CNN
	1    2850 3350
	1    0    0    1   
$EndComp
Wire Wire Line
	2550 2450 2400 2450
Wire Wire Line
	2400 2450 2400 2850
Wire Wire Line
	2400 2850 2500 2850
Wire Wire Line
	2500 3050 2300 3050
Wire Wire Line
	2300 3050 2300 2350
Wire Wire Line
	2300 2350 2550 2350
Wire Wire Line
	3200 2850 3300 2850
Wire Wire Line
	3300 2850 3300 2450
Wire Wire Line
	3300 2450 3150 2450
Wire Wire Line
	3150 2350 3400 2350
Wire Wire Line
	3400 2350 3400 3050
Wire Wire Line
	3400 3050 3200 3050
$Comp
L t-5:DIP-14-4-THT U2
U 1 1 61BE99B2
P 4400 2200
F 0 "U2" H 4400 2275 50  0000 C CNN
F 1 "DIP-14-4-THT" H 4400 2184 50  0000 C CNN
F 2 "T5_w11:DIP-14-4-THT" H 4400 2200 50  0001 C CNN
F 3 "" H 4400 2200 50  0001 C CNN
	1    4400 2200
	1    0    0    -1  
$EndComp
$Comp
L t-5:XO_4Pin XO2
U 1 1 61BE99B8
P 4400 3350
F 0 "XO2" H 4400 2585 50  0000 C CNN
F 1 "XO_4Pin" H 4400 2676 50  0000 C CNN
F 2 "T5_w11:XO NDK NZ2520SDA" H 4400 3350 50  0001 C CNN
F 3 "" H 4400 3350 50  0001 C CNN
	1    4400 3350
	1    0    0    1   
$EndComp
Wire Wire Line
	4100 2450 3950 2450
Wire Wire Line
	3950 2450 3950 2850
Wire Wire Line
	3950 2850 4050 2850
Wire Wire Line
	4050 3050 3850 3050
Wire Wire Line
	3850 3050 3850 2350
Wire Wire Line
	3850 2350 4100 2350
Wire Wire Line
	4750 2850 4850 2850
Wire Wire Line
	4850 2850 4850 2450
Wire Wire Line
	4850 2450 4700 2450
Wire Wire Line
	4700 2350 4950 2350
Wire Wire Line
	4950 2350 4950 3050
Wire Wire Line
	4950 3050 4750 3050
$Comp
L t-5:DIP-14-4-THT U3
U 1 1 61BEA4F4
P 5950 2200
F 0 "U3" H 5950 2275 50  0000 C CNN
F 1 "DIP-14-4-THT" H 5950 2184 50  0000 C CNN
F 2 "T5_w11:DIP-14-4-THT" H 5950 2200 50  0001 C CNN
F 3 "" H 5950 2200 50  0001 C CNN
	1    5950 2200
	1    0    0    -1  
$EndComp
$Comp
L t-5:XO_4Pin XO3
U 1 1 61BEA4FA
P 5950 3350
F 0 "XO3" H 5950 2585 50  0000 C CNN
F 1 "XO_4Pin" H 5950 2676 50  0000 C CNN
F 2 "T5_w11:XO Taitien XO-0072-OX" H 5950 3350 50  0001 C CNN
F 3 "" H 5950 3350 50  0001 C CNN
	1    5950 3350
	1    0    0    1   
$EndComp
Wire Wire Line
	5650 2450 5500 2450
Wire Wire Line
	5500 2450 5500 2850
Wire Wire Line
	5500 2850 5600 2850
Wire Wire Line
	5600 3050 5400 3050
Wire Wire Line
	5400 3050 5400 2350
Wire Wire Line
	5400 2350 5650 2350
Wire Wire Line
	6300 2850 6400 2850
Wire Wire Line
	6400 2850 6400 2450
Wire Wire Line
	6400 2450 6250 2450
Wire Wire Line
	6250 2350 6500 2350
Wire Wire Line
	6500 2350 6500 3050
Wire Wire Line
	6500 3050 6300 3050
$Comp
L Device:C C3
U 1 1 61BEAB2A
P 6500 3300
F 0 "C3" H 6615 3346 50  0000 L CNN
F 1 "10n" H 6615 3255 50  0000 L CNN
F 2 "Capacitor_SMD:C_0805_2012Metric" H 6538 3150 50  0001 C CNN
F 3 "~" H 6500 3300 50  0001 C CNN
	1    6500 3300
	1    0    0    -1  
$EndComp
$Comp
L Device:C C2
U 1 1 61BEB67F
P 4950 3300
F 0 "C2" H 5065 3346 50  0000 L CNN
F 1 "10n" H 5065 3255 50  0000 L CNN
F 2 "Capacitor_SMD:C_0805_2012Metric" H 4988 3150 50  0001 C CNN
F 3 "~" H 4950 3300 50  0001 C CNN
	1    4950 3300
	1    0    0    -1  
$EndComp
$Comp
L Device:C C1
U 1 1 61BEBA8E
P 3400 3300
F 0 "C1" H 3515 3346 50  0000 L CNN
F 1 "10n" H 3515 3255 50  0000 L CNN
F 2 "Capacitor_SMD:C_0805_2012Metric" H 3438 3150 50  0001 C CNN
F 3 "~" H 3400 3300 50  0001 C CNN
	1    3400 3300
	1    0    0    -1  
$EndComp
Wire Wire Line
	3400 3150 3400 3050
Connection ~ 3400 3050
Wire Wire Line
	4950 3150 4950 3050
Connection ~ 4950 3050
Wire Wire Line
	6500 3050 6500 3150
Connection ~ 6500 3050
Wire Wire Line
	6500 3450 6500 3500
Wire Wire Line
	6500 3500 5500 3500
Wire Wire Line
	5500 3500 5500 2850
Connection ~ 5500 2850
Wire Wire Line
	4950 3450 4950 3500
Wire Wire Line
	4950 3500 3950 3500
Wire Wire Line
	3950 3500 3950 2850
Connection ~ 3950 2850
Wire Wire Line
	3400 3450 3400 3500
Wire Wire Line
	3400 3500 2400 3500
Wire Wire Line
	2400 3500 2400 2850
Connection ~ 2400 2850
$EndSCHEMATC
